…
dt<-yp_scrape("https://www.yellowpages.com/search?search_terms=pizza&geo_location_terms=Lakewood%2C+NJ")

```

After some time (could be a while based on your machine). 

With this, you should get the following output

(_Scraped June 6, 2019_)

```R
>dt

# A tibble: 450 x 5
   Name                       Address                     `Phone Number` Website                Email               
   <chr>                      <chr>                       <chr>          <chr>                  <chr>               
 1 D & D Pizza                130 Ocean Ave, Lakewood, N… (732) 364-3790 ""                     ""                  
 2 Ippolito's Pizzeria e Ris… 700 Highway 70, Lakewood, … (732) 363-0103 http://www.ippolitosc… mailto:pi929@aol.com
 3 Charlie's Pizza            1000 Highway 70, Lakewood,… (732) 370-3580 http://www.charliespi… mailto:charliespizz…
 4 Emilio's Pizza & Restaura… 715 Bennetts Mills Rd Unit… (732) 719-6944 http://emiliosjackson… mailto:solano1777@g…
 5 Via Roma Restaurant & Piz… 2360 Route 9, Toms River, … (732) 276-4331 ""                     mailto:viaromatomsr…
 6 Frank's Pizza & Restaurant 1900 Highway 70, Lakewood,… (732) 477-4103 http://www.frankspizz… mailto:frankspizza@…
 7 Knockout Pizza             60 Chambersbridge Rd, Lake… (732) 363-3000 http://knockoutpizza.… mailto:dmkofnj@aol.…
 8 Rincon Mexicano Pizzeria … 100 Clifton Ave, Lakewood,… (732) 994-7350 ""                     ""                  
 9 Pizzaleh                   32 Clifton Ave, Lakewood, … (732) 367-7977 ""                     mailto:efraim@pizza…
10 Pizano                     1715 Clifton Ave, Lakewood… (732) 367-0200 http://thepizano.com   ""                  
# … with 440 more rows
```
…
